STAT 385 Statistics Programming Methods - Fall 2020
…
## -- Conflicts ------------------------------------------------------------------------------ tidyverse_conflicts() --
## x dplyr::filter() masks stats::filter()
## x dplyr::lag()    masks stats::lag()

##run this but change the file location
readr::read_csv("https://uofi.box.com/shared/static/4v7q5rzxsrceeuzioya99zn2z85mcfno.csv")

## Parsed with column specification:
## cols(
##   species = col_character(),
##   bodykg = col_double(),
##   braing = col_double()
## )

## # A tibble: 62 x 3
##    species                     bodykg braing
##    <chr>                        <dbl>  <dbl>
##  1 African elephant          6654     5712  
##  2 African giant pouched rat    1        6.6
##  3 Arctic Fox                   3.38    44.5
##  4 Arctic ground squirrel       0.92     5.7
##  5 Asian elephant            2547     4603  
##  6 Baboon                      10.6    180. 
##  7 Big brown bat                0.023    0.3
##  8 Brazilian tapir            160      169  
##  9 Cat                          3.3     25.6
## 10 Chimpanzee                  52.2    440  
## # ... with 52 more rows
…
##  [1]  25000  12500  10000 250000  12000 644000  80000 135000  25699  15000

Success!

The following actions are typically found in the dplyr package in the tidyverse.

Filtering

We can subset observations based on their values using the filter() function. This type of subsetting allows us to only show observations that satisfy a particular condition. The subset() function is never allowed in this course.

Be careful not to confuse these actions in the tidyverse as permanent assignment operations. These actions show us temporary results that are not stored into any object; unless we assign them using the operator <-.

filter(SBA, State == "CA")

## # A tibble: 29 x 27
##    LoanNr_ChkDgt Name  City  State   Zip Bank  BankState  NAICS ApprovalDate
##            <dbl> <chr> <chr> <chr> <dbl> <chr> <chr>      <dbl> <chr>       
##  1    2490395004 Trex~ W HO~ CA    90069 BANK~ NC        561990 1-Jun-07    
##  2    5243444006 SUNS~ SANT~ CA    95403 UMPQ~ OR        453998 28-Feb-02   
##  3    1088114002 J.G.~ REDO~ CA    90277 OPUS~ CA        541512 2-Apr-97    
##  4    1810195009 Maje~ CHAT~ CA    91311 BANK~ NC        337920 9-May-06    
##  5    4656573007 CLAS~ LOS ~ CA    90039 CATH~ CA        811121 16-Dec-91   
##  6    4912475004 Tali~ SAN ~ CA    94103 JPMO~ IL        327215 13-Oct-11   
##  7    2333974001 CLAR~ CARM~ CA    93923 BANK~ CA             0 18-Sep-98   
##  8    7944054009 JOHN~ SAN ~ CA    95133 EAST~ CA        423920 15-Oct-04   
##  9    1833025007 ALAN~ SAN ~ CA    94117 U.S.~ OH        531210 22-May-06   
## 10    3478643006 COLO~ REDW~ CA    94063 CITI~ CA        323122 12-Jul-89   
## # ... with 19 more rows, and 18 more variables: ApprovalFY <dbl>, Term <dbl>,
## #   NoEmp <dbl>, NewExist <dbl>, CreateJob <dbl>, RetainedJob <dbl>,
## #   FranchiseCode <dbl>, UrbanRural <dbl>, RevLineCr <chr>, LowDoc <chr>,
## #   ChgOffDate <chr>, DisbursementDate <chr>, DisbursementGross <chr>,
## #   BalanceGross <chr>, MIS_Status <chr>, ChgOffPrinGr <chr>, GrAppv <chr>,
## #   SBA_Appv <chr>
…
## # A tibble: 2 x 27
##   LoanNr_ChkDgt Name  City  State   Zip Bank  BankState  NAICS ApprovalDate
##           <dbl> <chr> <chr> <chr> <dbl> <chr> <chr>      <dbl> <chr>       
## 1    4656573007 CLAS~ LOS ~ CA    90039 CATH~ CA        811121 16-Dec-91   
## 2    6513714010 JOHN~ LOS ~ CA    90015 HANM~ CA        424320 22-Jul-03   
## # ... with 18 more variables: ApprovalFY <dbl>, Term <dbl>, NoEmp <dbl>,
## #   NewExist <dbl>, CreateJob <dbl>, RetainedJob <dbl>, FranchiseCode <dbl>,
## #   UrbanRural <dbl>, RevLineCr <chr>, LowDoc <chr>, ChgOffDate <chr>,
## #   DisbursementDate <chr>, DisbursementGross <chr>, BalanceGross <chr>,
## #   MIS_Status <chr>, ChgOffPrinGr <chr>, GrAppv <chr>, SBA_Appv <chr>

filter(SBA, State == "CA" | City == "LOS ANGELES") 

## # A tibble: 29 x 27
##    LoanNr_ChkDgt Name  City  State   Zip Bank  BankState  NAICS ApprovalDate
##            <dbl> <chr> <chr> <chr> <dbl> <chr> <chr>      <dbl> <chr>       
##  1    2490395004 Trex~ W HO~ CA    90069 BANK~ NC        561990 1-Jun-07    
##  2    5243444006 SUNS~ SANT~ CA    95403 UMPQ~ OR        453998 28-Feb-02   
##  3    1088114002 J.G.~ REDO~ CA    90277 OPUS~ CA        541512 2-Apr-97    
##  4    1810195009 Maje~ CHAT~ CA    91311 BANK~ NC        337920 9-May-06    
##  5    4656573007 CLAS~ LOS ~ CA    90039 CATH~ CA        811121 16-Dec-91   
##  6    4912475004 Tali~ SAN ~ CA    94103 JPMO~ IL        327215 13-Oct-11   
##  7    2333974001 CLAR~ CARM~ CA    93923 BANK~ CA             0 18-Sep-98   
##  8    7944054009 JOHN~ SAN ~ CA    95133 EAST~ CA        423920 15-Oct-04   
##  9    1833025007 ALAN~ SAN ~ CA    94117 U.S.~ OH        531210 22-May-06   
## 10    3478643006 COLO~ REDW~ CA    94063 CITI~ CA        323122 12-Jul-89   
## # ... with 19 more rows, and 18 more variables: ApprovalFY <dbl>, Term <dbl>,
## #   NoEmp <dbl>, NewExist <dbl>, CreateJob <dbl>, RetainedJob <dbl>,
## #   FranchiseCode <dbl>, UrbanRural <dbl>, RevLineCr <chr>, LowDoc <chr>,
## #   ChgOffDate <chr>, DisbursementDate <chr>, DisbursementGross <chr>,
## #   BalanceGross <chr>, MIS_Status <chr>, ChgOffPrinGr <chr>, GrAppv <chr>,
## #   SBA_Appv <chr>

filter(SBA, State == "CA" | State == "GA") 

## # A tibble: 31 x 27
##    LoanNr_ChkDgt Name  City  State   Zip Bank  BankState  NAICS ApprovalDate
##            <dbl> <chr> <chr> <chr> <dbl> <chr> <chr>      <dbl> <chr>       
##  1    2490395004 Trex~ W HO~ CA    90069 BANK~ NC        561990 1-Jun-07    
##  2    5243444006 SUNS~ SANT~ CA    95403 UMPQ~ OR        453998 28-Feb-02   
##  3    1088114002 J.G.~ REDO~ CA    90277 OPUS~ CA        541512 2-Apr-97    
##  4    1810195009 Maje~ CHAT~ CA    91311 BANK~ NC        337920 9-May-06    
##  5    4656573007 CLAS~ LOS ~ CA    90039 CATH~ CA        811121 16-Dec-91   
##  6    4912475004 Tali~ SAN ~ CA    94103 JPMO~ IL        327215 13-Oct-11   
##  7    2333974001 CLAR~ CARM~ CA    93923 BANK~ CA             0 18-Sep-98   
##  8    5628613003 MOOR~ COLQ~ GA    31737 PEOP~ GA        444130 6-Apr-93    
##  9    7944054009 JOHN~ SAN ~ CA    95133 EAST~ CA        423920 15-Oct-04   
## 10    1833025007 ALAN~ SAN ~ CA    94117 U.S.~ OH        531210 22-May-06   
## # ... with 21 more rows, and 18 more variables: ApprovalFY <dbl>, Term <dbl>,
## #   NoEmp <dbl>, NewExist <dbl>, CreateJob <dbl>, RetainedJob <dbl>,
## #   FranchiseCode <dbl>, UrbanRural <dbl>, RevLineCr <chr>, LowDoc <chr>,
## #   ChgOffDate <chr>, DisbursementDate <chr>, DisbursementGross <chr>,
## #   BalanceGross <chr>, MIS_Status <chr>, ChgOffPrinGr <chr>, GrAppv <chr>,
## #   SBA_Appv <chr>
…
Arranging

This action sorts the data by a particular set of columns using the arange() function. We can sort items in ascending (default) or descending order for a particular column. And we can do this for more than one column at once.

arrange(SBA, State, desc(DisbursementGross)) 

## # A tibble: 200 x 27
##    LoanNr_ChkDgt Name  City  State   Zip Bank  BankState  NAICS ApprovalDate
##            <dbl> <chr> <chr> <chr> <dbl> <chr> <chr>      <dbl> <chr>       
##  1    2764546006 CLEV~ ATTA~ AL    35954 BIRM~ AL        447110 20-Apr-07   
##  2    1632324000 ROGE~ ROGE~ AR    72712 ARVE~ AR             0 21-Oct-97   
##  3    4768083007 SAND~ HARR~ AR    72601 REGI~ AL             0 25-Mar-92   
##  4    5962774007 WARB~ LAKE~ AZ    86403 WELL~ SD        621399 19-Dec-02   
##  5    7071394006 MESA~ PHOE~ AZ    85044 WELL~ SD        811111 29-Dec-03   
##  6    4742415004 Dedi~ TEMPE AZ    85281 JPMO~ IL        711320 22-Jun-11   
##  7    2641145008 D W ~ TEMPE AZ    85284 NATI~ AZ        541613 16-Aug-07   
##  8    3173856008 MOOR~ FULL~ CA    92832 BAY ~ CA        541320 25-Feb-08   
##  9    7526034000 CHEV~ SAN ~ CA    92126 PACI~ CA        524210 16-Jun-04   
## 10    4912475004 Tali~ SAN ~ CA    94103 JPMO~ IL        327215 13-Oct-11   
## # ... with 190 more rows, and 18 more variables: ApprovalFY <dbl>, Term <dbl>,
## #   NoEmp <dbl>, NewExist <dbl>, CreateJob <dbl>, RetainedJob <dbl>,
## #   FranchiseCode <dbl>, UrbanRural <dbl>, RevLineCr <chr>, LowDoc <chr>,
## #   ChgOffDate <chr>, DisbursementDate <chr>, DisbursementGross <chr>,
## #   BalanceGross <chr>, MIS_Status <chr>, ChgOffPrinGr <chr>, GrAppv <chr>,
## #   SBA_Appv <chr>

arrange(SBA, State, desc(DisbursementGross)) 

## # A tibble: 200 x 27
##    LoanNr_ChkDgt Name  City  State   Zip Bank  BankState  NAICS ApprovalDate
##            <dbl> <chr> <chr> <chr> <dbl> <chr> <chr>      <dbl> <chr>       
##  1    2764546006 CLEV~ ATTA~ AL    35954 BIRM~ AL        447110 20-Apr-07   
##  2    1632324000 ROGE~ ROGE~ AR    72712 ARVE~ AR             0 21-Oct-97   
##  3    4768083007 SAND~ HARR~ AR    72601 REGI~ AL             0 25-Mar-92   
##  4    5962774007 WARB~ LAKE~ AZ    86403 WELL~ SD        621399 19-Dec-02   
##  5    7071394006 MESA~ PHOE~ AZ    85044 WELL~ SD        811111 29-Dec-03   
##  6    4742415004 Dedi~ TEMPE AZ    85281 JPMO~ IL        711320 22-Jun-11   
##  7    2641145008 D W ~ TEMPE AZ    85284 NATI~ AZ        541613 16-Aug-07   
##  8    3173856008 MOOR~ FULL~ CA    92832 BAY ~ CA        541320 25-Feb-08   
##  9    7526034000 CHEV~ SAN ~ CA    92126 PACI~ CA        524210 16-Jun-04   
## 10    4912475004 Tali~ SAN ~ CA    94103 JPMO~ IL        327215 13-Oct-11   
## # ... with 190 more rows, and 18 more variables: ApprovalFY <dbl>, Term <dbl>,
## #   NoEmp <dbl>, NewExist <dbl>, CreateJob <dbl>, RetainedJob <dbl>,
## #   FranchiseCode <dbl>, UrbanRural <dbl>, RevLineCr <chr>, LowDoc <chr>,
## #   ChgOffDate <chr>, DisbursementDate <chr>, DisbursementGross <chr>,
## #   BalanceGross <chr>, MIS_Status <chr>, ChgOffPrinGr <chr>, GrAppv <chr>,
## #   SBA_Appv <chr>
…
Selecting

This action describes keeping or dropping variables or columns from a dataset using the select() function. We might rename variables or columns via the rename() function. Also, we might change the column order by moving a few columns only and keeping the remaining columns intact (see the everything() function). Second reminder: these are not permanent assignment operations.

select(SBA, State, NoEmp, DisbursementGross) #keeping columns

## # A tibble: 200 x 3
##    State NoEmp DisbursementGross
##    <chr> <dbl> <chr>            
##  1 NJ        1 $25,000.00       
##  2 TX        4 $12,500.00       
##  3 NJ        7 $10,000.00       
##  4 WI       20 $250,000.00      
##  5 CA       11 $12,000.00       
##  6 CO        5 $644,000.00      
##  7 MI        5 $80,000.00       
##  8 AZ       30 $135,000.00      
##  9 OH        0 $25,699.00       
## 10 IL        5 $15,000.00       
## # ... with 190 more rows

select(SBA, -c(State, NoEmp, DisbursementGross)) #dropping columns

## # A tibble: 200 x 24
##    LoanNr_ChkDgt Name  City    Zip Bank  BankState  NAICS ApprovalDate
##            <dbl> <chr> <chr> <dbl> <chr> <chr>      <dbl> <chr>       
##  1    5420744004 GALL~ MANA~  8050 BANK~ NC        446191 24-May-02   
##  2    3590135009 ELEC~ AUST~ 78737 SUPE~ CA        332322 21-Aug-09   
##  3    8087434004 ALLI~ CAMD~  8102 PNC ~ DE        722211 10-Nov-04   
##  4    4850623002 LENA~ EDGE~ 53534 BADG~ WI        333414 19-May-92   
##  5    2490395004 Trex~ W HO~ 90069 BANK~ NC        561990 1-Jun-07    
##  6    8987834001 INNO~ BROO~ 80020 KEYB~ OH        423320 15-Jul-05   
##  7    5636874007 MICH~ BERK~ 48072 PNC ~ DE        812199 22-Aug-02   
##  8    2641145008 D W ~ TEMPE 85284 NATI~ AZ        541613 16-Aug-07   
##  9    2268455008 Inno~ Stro~ 44149 PNC ~ OH        541614 9-Feb-07    
## 10    7385794000 SPYD~ PEOR~ 61615 BBCN~ CA        541511 26-Apr-04   
## # ... with 190 more rows, and 16 more variables: ApprovalFY <dbl>, Term <dbl>,
## #   NewExist <dbl>, CreateJob <dbl>, RetainedJob <dbl>, FranchiseCode <dbl>,
## #   UrbanRural <dbl>, RevLineCr <chr>, LowDoc <chr>, ChgOffDate <chr>,
## #   DisbursementDate <chr>, BalanceGross <chr>, MIS_Status <chr>,
## #   ChgOffPrinGr <chr>, GrAppv <chr>, SBA_Appv <chr>

select( rename(SBA, TotalEmployees = NoEmp), TotalEmployees, State) #renaming columns

## # A tibble: 200 x 2
##    TotalEmployees State
##             <dbl> <chr>
##  1              1 NJ   
##  2              4 TX   
##  3              7 NJ   
##  4             20 WI   
##  5             11 CA   
##  6              5 CO   
##  7              5 MI   
##  8             30 AZ   
##  9              0 OH   
## 10              5 IL   
## # ... with 190 more rows

select(SBA, DisbursementGross, NoEmp, everything()) #moving some columns to the first few columns instead of their current column order

## # A tibble: 200 x 27
##    DisbursementGro~ NoEmp LoanNr_ChkDgt Name  City  State   Zip Bank  BankState
##    <chr>            <dbl>         <dbl> <chr> <chr> <chr> <dbl> <chr> <chr>    
##  1 $25,000.00           1    5420744004 GALL~ MANA~ NJ     8050 BANK~ NC       
##  2 $12,500.00           4    3590135009 ELEC~ AUST~ TX    78737 SUPE~ CA       
##  3 $10,000.00           7    8087434004 ALLI~ CAMD~ NJ     8102 PNC ~ DE       
##  4 $250,000.00         20    4850623002 LENA~ EDGE~ WI    53534 BADG~ WI       
##  5 $12,000.00          11    2490395004 Trex~ W HO~ CA    90069 BANK~ NC       
##  6 $644,000.00          5    8987834001 INNO~ BROO~ CO    80020 KEYB~ OH       
##  7 $80,000.00           5    5636874007 MICH~ BERK~ MI    48072 PNC ~ DE       
##  8 $135,000.00         30    2641145008 D W ~ TEMPE AZ    85284 NATI~ AZ       
##  9 $25,699.00           0    2268455008 Inno~ Stro~ OH    44149 PNC ~ OH       
## 10 $15,000.00           5    7385794000 SPYD~ PEOR~ IL    61615 BBCN~ CA       
## # ... with 190 more rows, and 18 more variables: NAICS <dbl>,
## #   ApprovalDate <chr>, ApprovalFY <dbl>, Term <dbl>, NewExist <dbl>,
## #   CreateJob <dbl>, RetainedJob <dbl>, FranchiseCode <dbl>, UrbanRural <dbl>,
## #   RevLineCr <chr>, LowDoc <chr>, ChgOffDate <chr>, DisbursementDate <chr>,
## #   BalanceGross <chr>, MIS_Status <chr>, ChgOffPrinGr <chr>, GrAppv <chr>,
## #   SBA_Appv <chr>

Mutating

Mutating a data set is the act of creating new variables or overwriting old ones. Mutating is accomplished through the mutate() function.

mutate(SBA, LogDG = log(as.numeric(str_remove_all(DisbursementGross, "\\,|\\$"))), Portion = as.numeric(str_remove_all(SBA_Appv, "\\,|\\$"))/as.numeric(str_remove_all(GrAppv, "\\,|\\$")))

## # A tibble: 200 x 29
##    LoanNr_ChkDgt Name  City  State   Zip Bank  BankState  NAICS ApprovalDate
##            <dbl> <chr> <chr> <chr> <dbl> <chr> <chr>      <dbl> <chr>       
##  1    5420744004 GALL~ MANA~ NJ     8050 BANK~ NC        446191 24-May-02   
##  2    3590135009 ELEC~ AUST~ TX    78737 SUPE~ CA        332322 21-Aug-09   
##  3    8087434004 ALLI~ CAMD~ NJ     8102 PNC ~ DE        722211 10-Nov-04   
##  4    4850623002 LENA~ EDGE~ WI    53534 BADG~ WI        333414 19-May-92   
##  5    2490395004 Trex~ W HO~ CA    90069 BANK~ NC        561990 1-Jun-07    
##  6    8987834001 INNO~ BROO~ CO    80020 KEYB~ OH        423320 15-Jul-05   
##  7    5636874007 MICH~ BERK~ MI    48072 PNC ~ DE        812199 22-Aug-02   
##  8    2641145008 D W ~ TEMPE AZ    85284 NATI~ AZ        541613 16-Aug-07   
##  9    2268455008 Inno~ Stro~ OH    44149 PNC ~ OH        541614 9-Feb-07    
## 10    7385794000 SPYD~ PEOR~ IL    61615 BBCN~ CA        541511 26-Apr-04   
## # ... with 190 more rows, and 20 more variables: ApprovalFY <dbl>, Term <dbl>,
## #   NoEmp <dbl>, NewExist <dbl>, CreateJob <dbl>, RetainedJob <dbl>,
## #   FranchiseCode <dbl>, UrbanRural <dbl>, RevLineCr <chr>, LowDoc <chr>,
## #   ChgOffDate <chr>, DisbursementDate <chr>, DisbursementGross <chr>,
## #   BalanceGross <chr>, MIS_Status <chr>, ChgOffPrinGr <chr>, GrAppv <chr>,
## #   SBA_Appv <chr>, LogDG <dbl>, Portion <dbl>

Functions that are already understood in R as vectorized functions can be used within the mutate() function such as

select( mutate(SBA, Ontology = ifelse(NewExist==2,"new biz", "existing biz")), Ontology, NewExist, NoEmp)

## # A tibble: 200 x 3
##    Ontology     NewExist NoEmp
##    <chr>           <dbl> <dbl>
##  1 existing biz        1     1
##  2 existing biz        1     4
##  3 new biz             2     7
##  4 existing biz        1    20
##  5 existing biz        1    11
##  6 existing biz        1     5
##  7 existing biz        1     5
##  8 existing biz        1    30
##  9 new biz             2     0
## 10 existing biz        1     5
## # ... with 190 more rows
…
We can create grouped summaries of data by calculating a summary value (frequency, mean, median, etc.) for all members within a group. Ideally, we want the result to be a data frame or other recursive object when possible. With the tidyverse, we need two actions to work in tandem: group_by() and summarise().

The group_by() function allows us to do data processing separately for each group in the data frame. By itself, the function does not affect the data outwardly. The group processing takes place once we combine this function with other dplyr function (verbs), especially summarise(). The group_by() can work with mutate() and arrange() as well when specified.

We can create grouped summaries of data with the summarise function. By itself it collapses a data frame into a vector by aggregating. This implies that we first group the data, then summarise. Also notice the difference between mutate() and summarise() after the group_by().

g <- group_by(SBA, State)

x1<-summarise(g, AvgDG = mean(as.numeric(str_remove_all(DisbursementGross, "\\,|\\$"))))

## `summarise()` ungrouping output (override with `.groups` argument)

x1

## # A tibble: 46 x 2
##    State    AvgDG
##    <chr>    <dbl>
##  1 AL     362000 
##  2 AR      59300 
##  3 AZ    1077472 
##  4 CA     237028.
##  5 CO     262339 
##  6 CT     200000 
##  7 DE      40000 
##  8 FL     150238.
##  9 GA     133500 
## 10 HI      15000 
## # ... with 36 more rows

x2<-mutate(g, AvgDG = mean(as.numeric(str_remove_all(DisbursementGross, "\\,|\\$"))))
x2

## # A tibble: 200 x 28
## # Groups:   State [46]
##    LoanNr_ChkDgt Name  City  State   Zip Bank  BankState  NAICS ApprovalDate
##            <dbl> <chr> <chr> <chr> <dbl> <chr> <chr>      <dbl> <chr>       
##  1    5420744004 GALL~ MANA~ NJ     8050 BANK~ NC        446191 24-May-02   
##  2    3590135009 ELEC~ AUST~ TX    78737 SUPE~ CA        332322 21-Aug-09   
##  3    8087434004 ALLI~ CAMD~ NJ     8102 PNC ~ DE        722211 10-Nov-04   
##  4    4850623002 LENA~ EDGE~ WI    53534 BADG~ WI        333414 19-May-92   
##  5    2490395004 Trex~ W HO~ CA    90069 BANK~ NC        561990 1-Jun-07    
##  6    8987834001 INNO~ BROO~ CO    80020 KEYB~ OH        423320 15-Jul-05   
##  7    5636874007 MICH~ BERK~ MI    48072 PNC ~ DE        812199 22-Aug-02   
##  8    2641145008 D W ~ TEMPE AZ    85284 NATI~ AZ        541613 16-Aug-07   
##  9    2268455008 Inno~ Stro~ OH    44149 PNC ~ OH        541614 9-Feb-07    
## 10    7385794000 SPYD~ PEOR~ IL    61615 BBCN~ CA        541511 26-Apr-04   
## # ... with 190 more rows, and 19 more variables: ApprovalFY <dbl>, Term <dbl>,
## #   NoEmp <dbl>, NewExist <dbl>, CreateJob <dbl>, RetainedJob <dbl>,
## #   FranchiseCode <dbl>, UrbanRural <dbl>, RevLineCr <chr>, LowDoc <chr>,
## #   ChgOffDate <chr>, DisbursementDate <chr>, DisbursementGross <chr>,
## #   BalanceGross <chr>, MIS_Status <chr>, ChgOffPrinGr <chr>, GrAppv <chr>,
## #   SBA_Appv <chr>, AvgDG <dbl>
…
